<?xml version="1.0"?>
<robot xmlns:xacro="http://ros.org/wiki/xacro">
  <material name="light-grey">
    <color rgba="0.8 0.8 0.8 1"/>
  </material>

  <xacro:macro name="small_box" params="base_link prefix x_orig y_orig z_orig">
    <link name="${prefix}_box">
      <visual>
        <geometry>
          <box size="0.05 0.05 0.05"/>
        </geometry>
        <material name="light-grey"/>
      </visual>
      <collision>
        <geometry>
          <box size="0.05 0.05 0.05"/>
        </geometry>
        <material name="light-grey"/>
      </collision>
  </link>

  <joint name="${prefix}_joint_box" type="fixed">
    <parent link="${base_link}"/>
    <child link="${prefix}_box"/>
    <origin rpy="0 0 0" xyz="${x_orig} ${y_orig} ${z_orig}"/>
  </joint>
  </xacro:macro>
</robot>

